id;nombre;numero
1;Tactics;84453
2;compress South Georgia and the South Sandwich Islands;58675
3;Specialist Home Loan Account;27599
4;scalable;16526
5;Industrial;42340
6;reinvent 24 hour Jewelery;19884
7;monitor 1080p Checking Account;92630
8;deposit Internal;85003
9;Highway Ergonomic;37081
10;Lempira;66592
